{
  "data": [
    {
      "attributes": {
        "corrected_fold_change": -0.177896379576342,
        "fold_change": -0.177896379576342,
        "gene_symbol": "A1BG",
        "model_name": "A2058",
        "normalised_essentiality": -1.25878675649426,
        "scaled_essentiality": -1.25837676025659
      },
      "id": 1,
      "links": {
        "self": "/datasets/crispr/1"
      },
      "relationships": {
        "gene": {
          "links": {
            "related": "/genes/A1BG"
          }
        },
        "model": {
          "links": {
            "related": "/models/A2058"
          }
        }
      },
      "type": "crispr_data"
    },
    {
      "attributes": {
        "corrected_fold_change": -0.10826566124019399,
        "fold_change": -0.10826566124019399,
        "gene_symbol": "A1CF",
        "model_name": "A2058",
        "normalised_essentiality": -1.79792137026001,
        "scaled_essentiality": -1.79751137402234
      },
      "id": 2,
      "links": {
        "self": "/datasets/crispr/2"
      },
      "relationships": {
        "gene": {
          "links": {
            "related": "/genes/A1CF"
          }
        },
        "model": {
          "links": {
            "related": "/models/A2058"
          }
        }
      },
      "type": "crispr_data"
    },
    {
      "attributes": {
        "corrected_fold_change": 0.11214398504963399,
        "fold_change": 0.11214398504963399,
        "gene_symbol": "A2M",
        "model_name": "A2058",
        "normalised_essentiality": -2.21786403441099,
        "scaled_essentiality": -2.2174540381733103
      },
      "id": 3,
      "links": {
        "self": "/datasets/crispr/3"
      },
      "relationships": {
        "gene": {
          "links": {
            "related": "/genes/A2M"
          }
        },
        "model": {
          "links": {
            "related": "/models/A2058"
          }
        }
      },
      "type": "crispr_data"
    },
    {
      "attributes": {
        "corrected_fold_change": -0.09543518165192699,
        "fold_change": -0.09543518165192699,
        "gene_symbol": "A2ML1",
        "model_name": "A2058",
        "normalised_essentiality": -1.83719542295173,
        "scaled_essentiality": -1.83678542671406
      },
      "id": 4,
      "links": {
        "self": "/datasets/crispr/4"
      },
      "relationships": {
        "gene": {
          "links": {
            "related": "/genes/A2ML1"
          }
        },
        "model": {
          "links": {
            "related": "/models/A2058"
          }
        }
      },
      "type": "crispr_data"
    },
    {
      "attributes": {
        "corrected_fold_change": -0.166595171238919,
        "fold_change": -0.166595171238919,
        "gene_symbol": "A3GALT2",
        "model_name": "A2058",
        "normalised_essentiality": -1.2506013970551397,
        "scaled_essentiality": -1.25019140081746
      },
      "id": 5,
      "links": {
        "self": "/datasets/crispr/5"
      },
      "relationships": {
        "gene": {
          "links": {
            "related": "/genes/A3GALT2"
          }
        },
        "model": {
          "links": {
            "related": "/models/A2058"
          }
        }
      },
      "type": "crispr_data"
    },
    {
      "attributes": {
        "corrected_fold_change": 0.0905446831324755,
        "fold_change": 0.0905446831324755,
        "gene_symbol": "A4GALT",
        "model_name": "A2058",
        "normalised_essentiality": -2.2417618856715,
        "scaled_essentiality": -2.24135188943382
      },
      "id": 6,
      "links": {
        "self": "/datasets/crispr/6"
      },
      "relationships": {
        "gene": {
          "links": {
            "related": "/genes/A4GALT"
          }
        },
        "model": {
          "links": {
            "related": "/models/A2058"
          }
        }
      },
      "type": "crispr_data"
    },
    {
      "attributes": {
        "corrected_fold_change": 0.0357489639097576,
        "fold_change": 0.0357489639097576,
        "gene_symbol": "A4GNT",
        "model_name": "A2058",
        "normalised_essentiality": -2.01464251005086,
        "scaled_essentiality": -2.01423251381319
      },
      "id": 7,
      "links": {
        "self": "/datasets/crispr/7"
      },
      "relationships": {
        "gene": {
          "links": {
            "related": "/genes/A4GNT"
          }
        },
        "model": {
          "links": {
            "related": "/models/A2058"
          }
        }
      },
      "type": "crispr_data"
    },
    {
      "attributes": {
        "corrected_fold_change": 0.213059574025963,
        "fold_change": 0.213059574025963,
        "gene_symbol": "AAAS",
        "model_name": "A2058",
        "normalised_essentiality": -2.4633613211931897,
        "scaled_essentiality": -2.46295132495552
      },
      "id": 8,
      "links": {
        "self": "/datasets/crispr/8"
      },
      "relationships": {
        "gene": {
          "links": {
            "related": "/genes/AAAS"
          }
        },
        "model": {
          "links": {
            "related": "/models/A2058"
          }
        }
      },
      "type": "crispr_data"
    },
    {
      "attributes": {
        "corrected_fold_change": -0.0188245938941297,
        "fold_change": -0.0188245938941297,
        "gene_symbol": "AACS",
        "model_name": "A2058",
        "normalised_essentiality": -2.23632365291394,
        "scaled_essentiality": -2.2359136566762703
      },
      "id": 9,
      "links": {
        "self": "/datasets/crispr/9"
      },
      "relationships": {
        "gene": {
          "links": {
            "related": "/genes/AACS"
          }
        },
        "model": {
          "links": {
            "related": "/models/A2058"
          }
        }
      },
      "type": "crispr_data"
    },
    {
      "attributes": {
        "corrected_fold_change": 0.171335502212716,
        "fold_change": 0.171335502212716,
        "gene_symbol": "AADAC",
        "model_name": "A2058",
        "normalised_essentiality": -2.41752185229335,
        "scaled_essentiality": -2.4171118560556804
      },
      "id": 10,
      "links": {
        "self": "/datasets/crispr/10"
      },
      "relationships": {
        "gene": {
          "links": {
            "related": "/genes/AADAC"
          }
        },
        "model": {
          "links": {
            "related": "/models/A2058"
          }
        }
      },
      "type": "crispr_data"
    },
    {
      "attributes": {
        "corrected_fold_change": -0.0207205433907389,
        "fold_change": -0.0207205433907389,
        "gene_symbol": "AADACL2",
        "model_name": "A2058",
        "normalised_essentiality": -2.1259830132230904,
        "scaled_essentiality": -2.1255730169854097
      },
      "id": 11,
      "links": {
        "self": "/datasets/crispr/11"
      },
      "relationships": {
        "gene": {
          "links": {
            "related": "/genes/AADACL2"
          }
        },
        "model": {
          "links": {
            "related": "/models/A2058"
          }
        }
      },
      "type": "crispr_data"
    },
    {
      "attributes": {
        "corrected_fold_change": 0.23956626799506894,
        "fold_change": 0.23956626799506894,
        "gene_symbol": "AADACL3",
        "model_name": "A2058",
        "normalised_essentiality": -2.35040709855485,
        "scaled_essentiality": -2.34999710231717
      },
      "id": 12,
      "links": {
        "self": "/datasets/crispr/12"
      },
      "relationships": {
        "gene": {
          "links": {
            "related": "/genes/AADACL3"
          }
        },
        "model": {
          "links": {
            "related": "/models/A2058"
          }
        }
      },
      "type": "crispr_data"
    },
    {
      "attributes": {
        "corrected_fold_change": 0.147515213456862,
        "fold_change": 0.147515213456862,
        "gene_symbol": "AADACL4",
        "model_name": "A2058",
        "normalised_essentiality": -2.39197803801098,
        "scaled_essentiality": -2.3915680417733
      },
      "id": 13,
      "links": {
        "self": "/datasets/crispr/13"
      },
      "relationships": {
        "gene": {
          "links": {
            "related": "/genes/AADACL4"
          }
        },
        "model": {
          "links": {
            "related": "/models/A2058"
          }
        }
      },
      "type": "crispr_data"
    },
    {
      "attributes": {
        "corrected_fold_change": 0.0409401761221318,
        "fold_change": 0.0409401761221318,
        "gene_symbol": "AADAT",
        "model_name": "A2058",
        "normalised_essentiality": -2.10699652423324,
        "scaled_essentiality": -2.10658652799557
      },
      "id": 14,
      "links": {
        "self": "/datasets/crispr/14"
      },
      "relationships": {
        "gene": {
          "links": {
            "related": "/genes/AADAT"
          }
        },
        "model": {
          "links": {
            "related": "/models/A2058"
          }
        }
      },
      "type": "crispr_data"
    },
    {
      "attributes": {
        "corrected_fold_change": 0.26660761799972,
        "fold_change": 0.26660761799972,
        "gene_symbol": "AAED1",
        "model_name": "A2058",
        "normalised_essentiality": -2.01448934886082,
        "scaled_essentiality": -2.0140793526231398
      },
      "id": 15,
      "links": {
        "self": "/datasets/crispr/15"
      },
      "relationships": {
        "gene": {
          "links": {
            "related": "/genes/AAED1"
          }
        },
        "model": {
          "links": {
            "related": "/models/A2058"
          }
        }
      },
      "type": "crispr_data"
    },
    {
      "attributes": {
        "corrected_fold_change": 0.22675421651422895,
        "fold_change": 0.22675421651422895,
        "gene_symbol": "AAGAB",
        "model_name": "A2058",
        "normalised_essentiality": -2.5233522423161,
        "scaled_essentiality": -2.52294224607843
      },
      "id": 16,
      "links": {
        "self": "/datasets/crispr/16"
      },
      "relationships": {
        "gene": {
          "links": {
            "related": "/genes/AAGAB"
          }
        },
        "model": {
          "links": {
            "related": "/models/A2058"
          }
        }
      },
      "type": "crispr_data"
    },
    {
      "attributes": {
        "corrected_fold_change": 0.338746793960413,
        "fold_change": 0.338746793960413,
        "gene_symbol": "AAK1",
        "model_name": "A2058",
        "normalised_essentiality": -2.5706300105103503,
        "scaled_essentiality": -2.5702200142726697
      },
      "id": 17,
      "links": {
        "self": "/datasets/crispr/17"
      },
      "relationships": {
        "gene": {
          "links": {
            "related": "/genes/AAK1"
          }
        },
        "model": {
          "links": {
            "related": "/models/A2058"
          }
        }
      },
      "type": "crispr_data"
    },
    {
      "attributes": {
        "corrected_fold_change": 0.0035188084134433603,
        "fold_change": 0.0035188084134433603,
        "gene_symbol": "AAMDC",
        "model_name": "A2058",
        "normalised_essentiality": -2.18921234492966,
        "scaled_essentiality": -2.18880234869199
      },
      "id": 18,
      "links": {
        "self": "/datasets/crispr/18"
      },
      "relationships": {
        "gene": {
          "links": {
            "related": "/genes/AAMDC"
          }
        },
        "model": {
          "links": {
            "related": "/models/A2058"
          }
        }
      },
      "type": "crispr_data"
    },
    {
      "attributes": {
        "corrected_fold_change": -2.4620450206065603,
        "fold_change": -2.4620450206065603,
        "gene_symbol": "AAMP",
        "model_name": "A2058",
        "normalised_essentiality": 3.77663708563395,
        "scaled_essentiality": 3.7770470818716197
      },
      "id": 19,
      "links": {
        "self": "/datasets/crispr/19"
      },
      "relationships": {
        "gene": {
          "links": {
            "related": "/genes/AAMP"
          }
        },
        "model": {
          "links": {
            "related": "/models/A2058"
          }
        }
      },
      "type": "crispr_data"
    },
    {
      "attributes": {
        "corrected_fold_change": 0.185866718603612,
        "fold_change": 0.185866718603612,
        "gene_symbol": "AANAT",
        "model_name": "A2058",
        "normalised_essentiality": -2.43720298340833,
        "scaled_essentiality": -2.4367929871706604
      },
      "id": 20,
      "links": {
        "self": "/datasets/crispr/20"
      },
      "relationships": {
        "gene": {
          "links": {
            "related": "/genes/AANAT"
          }
        },
        "model": {
          "links": {
            "related": "/models/A2058"
          }
        }
      },
      "type": "crispr_data"
    },
    {
      "attributes": {
        "corrected_fold_change": -0.11204680018586502,
        "fold_change": -0.11204680018586502,
        "gene_symbol": "AAR2",
        "model_name": "A2058",
        "normalised_essentiality": -1.38434625344369,
        "scaled_essentiality": -1.38393625720602
      },
      "id": 21,
      "links": {
        "self": "/datasets/crispr/21"
      },
      "relationships": {
        "gene": {
          "links": {
            "related": "/genes/AAR2"
          }
        },
        "model": {
          "links": {
            "related": "/models/A2058"
          }
        }
      },
      "type": "crispr_data"
    },
    {
      "attributes": {
        "corrected_fold_change": -0.16157072847446302,
        "fold_change": -0.16157072847446302,
        "gene_symbol": "AARD",
        "model_name": "A2058",
        "normalised_essentiality": -1.23123555288441,
        "scaled_essentiality": -1.23082555664674
      },
      "id": 22,
      "links": {
        "self": "/datasets/crispr/22"
      },
      "relationships": {
        "gene": {
          "links": {
            "related": "/genes/AARD"
          }
        },
        "model": {
          "links": {
            "related": "/models/A2058"
          }
        }
      },
      "type": "crispr_data"
    },
    {
      "attributes": {
        "corrected_fold_change": -3.3915515215003698,
        "fold_change": -3.3915515215003698,
        "gene_symbol": "AARS",
        "model_name": "A2058",
        "normalised_essentiality": 4.40400300432452,
        "scaled_essentiality": 4.40441300056219
      },
      "id": 23,
      "links": {
        "self": "/datasets/crispr/23"
      },
      "relationships": {
        "gene": {
          "links": {
            "related": "/genes/AARS"
          }
        },
        "model": {
          "links": {
            "related": "/models/A2058"
          }
        }
      },
      "type": "crispr_data"
    },
    {
      "attributes": {
        "corrected_fold_change": 0.0280130031484407,
        "fold_change": 0.0280130031484407,
        "gene_symbol": "AARS2",
        "model_name": "A2058",
        "normalised_essentiality": -2.07972263168232,
        "scaled_essentiality": -2.0793126354446496
      },
      "id": 24,
      "links": {
        "self": "/datasets/crispr/24"
      },
      "relationships": {
        "gene": {
          "links": {
            "related": "/genes/AARS2"
          }
        },
        "model": {
          "links": {
            "related": "/models/A2058"
          }
        }
      },
      "type": "crispr_data"
    },
    {
      "attributes": {
        "corrected_fold_change": -0.11246783261757301,
        "fold_change": -0.11246783261757301,
        "gene_symbol": "AARSD1",
        "model_name": "A2058",
        "normalised_essentiality": -1.47703505140916,
        "scaled_essentiality": -1.47662505517148
      },
      "id": 25,
      "links": {
        "self": "/datasets/crispr/25"
      },
      "relationships": {
        "gene": {
          "links": {
            "related": "/genes/AARSD1"
          }
        },
        "model": {
          "links": {
            "related": "/models/A2058"
          }
        }
      },
      "type": "crispr_data"
    },
    {
      "attributes": {
        "corrected_fold_change": 0.40597355254757794,
        "fold_change": 0.40597355254757794,
        "gene_symbol": "AASDH",
        "model_name": "A2058",
        "normalised_essentiality": -2.55644152740852,
        "scaled_essentiality": -2.55603153117085
      },
      "id": 26,
      "links": {
        "self": "/datasets/crispr/26"
      },
      "relationships": {
        "gene": {
          "links": {
            "related": "/genes/AASDH"
          }
        },
        "model": {
          "links": {
            "related": "/models/A2058"
          }
        }
      },
      "type": "crispr_data"
    },
    {
      "attributes": {
        "corrected_fold_change": -0.492552022444676,
        "fold_change": -0.492552022444676,
        "gene_symbol": "AASDHPPT",
        "model_name": "A2058",
        "normalised_essentiality": -0.175106458257806,
        "scaled_essentiality": -0.17469646202013298
      },
      "id": 27,
      "links": {
        "self": "/datasets/crispr/27"
      },
      "relationships": {
        "gene": {
          "links": {
            "related": "/genes/AASDHPPT"
          }
        },
        "model": {
          "links": {
            "related": "/models/A2058"
          }
        }
      },
      "type": "crispr_data"
    },
    {
      "attributes": {
        "corrected_fold_change": -0.0732837576562673,
        "fold_change": -0.0732837576562673,
        "gene_symbol": "AASS",
        "model_name": "A2058",
        "normalised_essentiality": -1.32145278912439,
        "scaled_essentiality": -1.32104279288672
      },
      "id": 28,
      "links": {
        "self": "/datasets/crispr/28"
      },
      "relationships": {
        "gene": {
          "links": {
            "related": "/genes/AASS"
          }
        },
        "model": {
          "links": {
            "related": "/models/A2058"
          }
        }
      },
      "type": "crispr_data"
    },
    {
      "attributes": {
        "corrected_fold_change": -1.86349703803897,
        "fold_change": -1.86349703803897,
        "gene_symbol": "AATF",
        "model_name": "A2058",
        "normalised_essentiality": 4.23739388681659,
        "scaled_essentiality": 4.23780388305426
      },
      "id": 29,
      "links": {
        "self": "/datasets/crispr/29"
      },
      "relationships": {
        "gene": {
          "links": {
            "related": "/genes/AATF"
          }
        },
        "model": {
          "links": {
            "related": "/models/A2058"
          }
        }
      },
      "type": "crispr_data"
    },
    {
      "attributes": {
        "corrected_fold_change": 0.381546238901567,
        "fold_change": 0.381546238901567,
        "gene_symbol": "AATK",
        "model_name": "A2058",
        "normalised_essentiality": -2.5798761489890296,
        "scaled_essentiality": -2.57946615275136
      },
      "id": 30,
      "links": {
        "self": "/datasets/crispr/30"
      },
      "relationships": {
        "gene": {
          "links": {
            "related": "/genes/AATK"
          }
        },
        "model": {
          "links": {
            "related": "/models/A2058"
          }
        }
      },
      "type": "crispr_data"
    }
  ],
  "jsonapi": {
    "version": "1.0"
  },
  "links": {
    "first": "/datasets/crispr",
    "last": "/datasets/crispr?page%5Bnumber%5D=118168",
    "next": "/datasets/crispr?page%5Bnumber%5D=2",
    "self": "/datasets/crispr"
  },
  "meta": {
    "count": 3545015
  }
}