{
  "data": [
    {
      "attributes": {
        "ensembl_gene_id": "ENSG00000121410",
        "entrez_id": 1,
        "gene_family": "Immunoglobulin like domain containing",
        "hgnc_id": "HGNC:5",
        "location": "19q13.43",
        "name": "alpha-1-B glycoprotein",
        "pubmed_id": "2591067",
        "symbol": "A1BG"
      },
      "id": 1,
      "links": {
        "self": "/genes/A1BG"
      },
      "relationships": {
        "crispr_data": {
          "links": {
            "related": "/genes/A1BG/datasets/crispr"
          }
        }
      },
      "type": "gene"
    },
    {
      "attributes": {
        "ensembl_gene_id": "ENSG00000148584",
        "entrez_id": 29974,
        "gene_family": "RNA binding motif containing",
        "hgnc_id": "HGNC:24086",
        "location": "10q11.23",
        "name": "APOBEC1 complementation factor",
        "pubmed_id": "11815617|11072063",
        "symbol": "A1CF"
      },
      "id": 2,
      "links": {
        "self": "/genes/A1CF"
      },
      "relationships": {
        "crispr_data": {
          "links": {
            "related": "/genes/A1CF/datasets/crispr"
          }
        }
      },
      "type": "gene"
    },
    {
      "attributes": {
        "ensembl_gene_id": "ENSG00000175899",
        "entrez_id": 2,
        "gene_family": "C3 and PZP like, alpha-2-macroglobulin domain containing",
        "hgnc_id": "HGNC:7",
        "location": "12p13.31",
        "name": "alpha-2-macroglobulin",
        "pubmed_id": "2408344|9697696",
        "symbol": "A2M"
      },
      "id": 3,
      "links": {
        "self": "/genes/A2M"
      },
      "relationships": {
        "crispr_data": {
          "links": {
            "related": "/genes/A2M/datasets/crispr"
          }
        }
      },
      "type": "gene"
    },
    {
      "attributes": {
        "ensembl_gene_id": "ENSG00000166535",
        "entrez_id": 144568,
        "gene_family": "C3 and PZP like, alpha-2-macroglobulin domain containing",
        "hgnc_id": "HGNC:23336",
        "location": "12p13.31",
        "name": "alpha-2-macroglobulin like 1",
        "pubmed_id": "16298998",
        "symbol": "A2ML1"
      },
      "id": 4,
      "links": {
        "self": "/genes/A2ML1"
      },
      "relationships": {
        "crispr_data": {
          "links": {
            "related": "/genes/A2ML1/datasets/crispr"
          }
        }
      },
      "type": "gene"
    },
    {
      "attributes": {
        "ensembl_gene_id": "ENSG00000184389",
        "entrez_id": 127550,
        "gene_family": "Glycosyltransferase family 6",
        "hgnc_id": "HGNC:30005",
        "location": "01p35.1",
        "name": "alpha 1,3-galactosyltransferase 2",
        "pubmed_id": "10854427|18630988",
        "symbol": "A3GALT2"
      },
      "id": 5,
      "links": {
        "self": "/genes/A3GALT2"
      },
      "relationships": {
        "crispr_data": {
          "links": {
            "related": "/genes/A3GALT2/datasets/crispr"
          }
        }
      },
      "type": "gene"
    },
    {
      "attributes": {
        "ensembl_gene_id": "ENSG00000128274",
        "entrez_id": 53947,
        "gene_family": "Alpha 1,4-glycosyltransferases",
        "hgnc_id": "HGNC:18149",
        "location": "22q13.2",
        "name": "alpha 1,4-galactosyltransferase",
        "pubmed_id": "10854428",
        "symbol": "A4GALT"
      },
      "id": 6,
      "links": {
        "self": "/genes/A4GALT"
      },
      "relationships": {
        "crispr_data": {
          "links": {
            "related": "/genes/A4GALT/datasets/crispr"
          }
        }
      },
      "type": "gene"
    },
    {
      "attributes": {
        "ensembl_gene_id": "ENSG00000118017",
        "entrez_id": 51146,
        "gene_family": "Alpha 1,4-glycosyltransferases",
        "hgnc_id": "HGNC:17968",
        "location": "03q22.3",
        "name": "alpha-1,4-N-acetylglucosaminyltransferase",
        "pubmed_id": "10430883",
        "symbol": "A4GNT"
      },
      "id": 7,
      "links": {
        "self": "/genes/A4GNT"
      },
      "relationships": {
        "crispr_data": {
          "links": {
            "related": "/genes/A4GNT/datasets/crispr"
          }
        }
      },
      "type": "gene"
    },
    {
      "attributes": {
        "ensembl_gene_id": "ENSG00000094914",
        "entrez_id": 8086,
        "gene_family": "WD repeat domain containing|Nucleoporins",
        "hgnc_id": "HGNC:13666",
        "location": "12q13.13",
        "name": "aladin WD repeat nucleoporin",
        "pubmed_id": "11062474",
        "symbol": "AAAS"
      },
      "id": 8,
      "links": {
        "self": "/genes/AAAS"
      },
      "relationships": {
        "crispr_data": {
          "links": {
            "related": "/genes/AAAS/datasets/crispr"
          }
        }
      },
      "type": "gene"
    },
    {
      "attributes": {
        "ensembl_gene_id": "ENSG00000081760",
        "entrez_id": 65985,
        "gene_family": "Acyl-CoA synthetase family",
        "hgnc_id": "HGNC:21298",
        "location": "12q24.31",
        "name": "acetoacetyl-CoA synthetase",
        "pubmed_id": "12623130|17762044",
        "symbol": "AACS"
      },
      "id": 9,
      "links": {
        "self": "/genes/AACS"
      },
      "relationships": {
        "crispr_data": {
          "links": {
            "related": "/genes/AACS/datasets/crispr"
          }
        }
      },
      "type": "gene"
    },
    {
      "attributes": {
        "ensembl_gene_id": "ENSG00000114771",
        "entrez_id": 13,
        "gene_family": "Lipases|Arylacetamide deacetylase family",
        "hgnc_id": "HGNC:17",
        "location": "03q25.1",
        "name": "arylacetamide deacetylase",
        "pubmed_id": "8063807",
        "symbol": "AADAC"
      },
      "id": 10,
      "links": {
        "self": "/genes/AADAC"
      },
      "relationships": {
        "crispr_data": {
          "links": {
            "related": "/genes/AADAC/datasets/crispr"
          }
        }
      },
      "type": "gene"
    },
    {
      "attributes": {
        "ensembl_gene_id": "ENSG00000197953",
        "entrez_id": 344752,
        "gene_family": "Arylacetamide deacetylase family",
        "hgnc_id": "HGNC:24427",
        "location": "03q25.1",
        "name": "arylacetamide deacetylase like 2",
        "pubmed_id": "25715734",
        "symbol": "AADACL2"
      },
      "id": 11,
      "links": {
        "self": "/genes/AADACL2"
      },
      "relationships": {
        "crispr_data": {
          "links": {
            "related": "/genes/AADACL2/datasets/crispr"
          }
        }
      },
      "type": "gene"
    },
    {
      "attributes": {
        "ensembl_gene_id": "ENSG00000188984",
        "entrez_id": 126767,
        "gene_family": "Arylacetamide deacetylase family",
        "hgnc_id": "HGNC:32037",
        "location": "01p36.21",
        "name": "arylacetamide deacetylase like 3",
        "pubmed_id": null,
        "symbol": "AADACL3"
      },
      "id": 12,
      "links": {
        "self": "/genes/AADACL3"
      },
      "relationships": {
        "crispr_data": {
          "links": {
            "related": "/genes/AADACL3/datasets/crispr"
          }
        }
      },
      "type": "gene"
    },
    {
      "attributes": {
        "ensembl_gene_id": "ENSG00000204518",
        "entrez_id": 343066,
        "gene_family": "Arylacetamide deacetylase family",
        "hgnc_id": "HGNC:32038",
        "location": "01p36.21",
        "name": "arylacetamide deacetylase like 4",
        "pubmed_id": null,
        "symbol": "AADACL4"
      },
      "id": 13,
      "links": {
        "self": "/genes/AADACL4"
      },
      "relationships": {
        "crispr_data": {
          "links": {
            "related": "/genes/AADACL4/datasets/crispr"
          }
        }
      },
      "type": "gene"
    },
    {
      "attributes": {
        "ensembl_gene_id": "ENSG00000109576",
        "entrez_id": 51166,
        "gene_family": null,
        "hgnc_id": "HGNC:17929",
        "location": "04q33",
        "name": "aminoadipate aminotransferase",
        "pubmed_id": "12126930|10441733|18056995",
        "symbol": "AADAT"
      },
      "id": 14,
      "links": {
        "self": "/genes/AADAT"
      },
      "relationships": {
        "crispr_data": {
          "links": {
            "related": "/genes/AADAT/datasets/crispr"
          }
        }
      },
      "type": "gene"
    },
    {
      "attributes": {
        "ensembl_gene_id": "ENSG00000158122",
        "entrez_id": 195827,
        "gene_family": null,
        "hgnc_id": "HGNC:16881",
        "location": "09q22.33",
        "name": "AhpC/TSA antioxidant enzyme domain containing 1",
        "pubmed_id": null,
        "symbol": "AAED1"
      },
      "id": 15,
      "links": {
        "self": "/genes/AAED1"
      },
      "relationships": {
        "crispr_data": {
          "links": {
            "related": "/genes/AAED1/datasets/crispr"
          }
        }
      },
      "type": "gene"
    },
    {
      "attributes": {
        "ensembl_gene_id": "ENSG00000103591",
        "entrez_id": 79719,
        "gene_family": null,
        "hgnc_id": "HGNC:25662",
        "location": "15q23",
        "name": "alpha- and gamma-adaptin binding protein",
        "pubmed_id": "11230166|10477754",
        "symbol": "AAGAB"
      },
      "id": 16,
      "links": {
        "self": "/genes/AAGAB"
      },
      "relationships": {
        "crispr_data": {
          "links": {
            "related": "/genes/AAGAB/datasets/crispr"
          }
        }
      },
      "type": "gene"
    },
    {
      "attributes": {
        "ensembl_gene_id": "ENSG00000115977",
        "entrez_id": 22848,
        "gene_family": null,
        "hgnc_id": "HGNC:19679",
        "location": "02p13.3",
        "name": "AP2 associated kinase 1",
        "pubmed_id": "11877461|12471243",
        "symbol": "AAK1"
      },
      "id": 17,
      "links": {
        "self": "/genes/AAK1"
      },
      "relationships": {
        "crispr_data": {
          "links": {
            "related": "/genes/AAK1/datasets/crispr"
          }
        }
      },
      "type": "gene"
    },
    {
      "attributes": {
        "ensembl_gene_id": "ENSG00000087884",
        "entrez_id": 28971,
        "gene_family": null,
        "hgnc_id": "HGNC:30205",
        "location": "11q14.1",
        "name": "adipogenesis associated Mth938 domain containing",
        "pubmed_id": "22279136",
        "symbol": "AAMDC"
      },
      "id": 18,
      "links": {
        "self": "/genes/AAMDC"
      },
      "relationships": {
        "crispr_data": {
          "links": {
            "related": "/genes/AAMDC/datasets/crispr"
          }
        }
      },
      "type": "gene"
    },
    {
      "attributes": {
        "ensembl_gene_id": "ENSG00000127837",
        "entrez_id": 14,
        "gene_family": "WD repeat domain containing",
        "hgnc_id": "HGNC:18",
        "location": "02q35",
        "name": "angio associated migratory cell protein",
        "pubmed_id": "7743515",
        "symbol": "AAMP"
      },
      "id": 19,
      "links": {
        "self": "/genes/AAMP"
      },
      "relationships": {
        "crispr_data": {
          "links": {
            "related": "/genes/AAMP/datasets/crispr"
          }
        }
      },
      "type": "gene"
    },
    {
      "attributes": {
        "ensembl_gene_id": "ENSG00000129673",
        "entrez_id": 15,
        "gene_family": "GCN5 related N-acetyltransferases",
        "hgnc_id": "HGNC:19",
        "location": "17q25.1",
        "name": "aralkylamine N-acetyltransferase",
        "pubmed_id": "8661026",
        "symbol": "AANAT"
      },
      "id": 20,
      "links": {
        "self": "/genes/AANAT"
      },
      "relationships": {
        "crispr_data": {
          "links": {
            "related": "/genes/AANAT/datasets/crispr"
          }
        }
      },
      "type": "gene"
    },
    {
      "attributes": {
        "ensembl_gene_id": "ENSG00000131043",
        "entrez_id": 25980,
        "gene_family": null,
        "hgnc_id": "HGNC:15886",
        "location": "20q11.23",
        "name": "AAR2 splicing factor homolog",
        "pubmed_id": "26527271",
        "symbol": "AAR2"
      },
      "id": 21,
      "links": {
        "self": "/genes/AAR2"
      },
      "relationships": {
        "crispr_data": {
          "links": {
            "related": "/genes/AAR2/datasets/crispr"
          }
        }
      },
      "type": "gene"
    },
    {
      "attributes": {
        "ensembl_gene_id": "ENSG00000205002",
        "entrez_id": 441376,
        "gene_family": null,
        "hgnc_id": "HGNC:33842",
        "location": "08q24.11",
        "name": "alanine and arginine rich domain containing protein",
        "pubmed_id": null,
        "symbol": "AARD"
      },
      "id": 22,
      "links": {
        "self": "/genes/AARD"
      },
      "relationships": {
        "crispr_data": {
          "links": {
            "related": "/genes/AARD/datasets/crispr"
          }
        }
      },
      "type": "gene"
    },
    {
      "attributes": {
        "ensembl_gene_id": "ENSG00000090861",
        "entrez_id": 16,
        "gene_family": "Aminoacyl tRNA synthetases, Class II",
        "hgnc_id": "HGNC:20",
        "location": "16q22.1",
        "name": "alanyl-tRNA synthetase",
        "pubmed_id": "8595897",
        "symbol": "AARS"
      },
      "id": 23,
      "links": {
        "self": "/genes/AARS"
      },
      "relationships": {
        "crispr_data": {
          "links": {
            "related": "/genes/AARS/datasets/crispr"
          }
        }
      },
      "type": "gene"
    },
    {
      "attributes": {
        "ensembl_gene_id": "ENSG00000124608",
        "entrez_id": 57505,
        "gene_family": "Aminoacyl tRNA synthetases, Class II",
        "hgnc_id": "HGNC:21022",
        "location": "06p21.1",
        "name": "alanyl-tRNA synthetase 2, mitochondrial",
        "pubmed_id": "15779907|21549344",
        "symbol": "AARS2"
      },
      "id": 24,
      "links": {
        "self": "/genes/AARS2"
      },
      "relationships": {
        "crispr_data": {
          "links": {
            "related": "/genes/AARS2/datasets/crispr"
          }
        }
      },
      "type": "gene"
    },
    {
      "attributes": {
        "ensembl_gene_id": "ENSG00000266967",
        "entrez_id": 80755,
        "gene_family": null,
        "hgnc_id": "HGNC:28417",
        "location": "17q21.31",
        "name": "alanyl-tRNA synthetase domain containing 1",
        "pubmed_id": null,
        "symbol": "AARSD1"
      },
      "id": 25,
      "links": {
        "self": "/genes/AARSD1"
      },
      "relationships": {
        "crispr_data": {
          "links": {
            "related": "/genes/AARSD1/datasets/crispr"
          }
        }
      },
      "type": "gene"
    },
    {
      "attributes": {
        "ensembl_gene_id": "ENSG00000157426",
        "entrez_id": 132949,
        "gene_family": "Acyl-CoA synthetase family",
        "hgnc_id": "HGNC:23993",
        "location": "04q12",
        "name": "aminoadipate-semialdehyde dehydrogenase",
        "pubmed_id": "15865210|12712191|17762044",
        "symbol": "AASDH"
      },
      "id": 26,
      "links": {
        "self": "/genes/AASDH"
      },
      "relationships": {
        "crispr_data": {
          "links": {
            "related": "/genes/AASDH/datasets/crispr"
          }
        }
      },
      "type": "gene"
    },
    {
      "attributes": {
        "ensembl_gene_id": "ENSG00000149313",
        "entrez_id": 60496,
        "gene_family": null,
        "hgnc_id": "HGNC:14235",
        "location": "11q22.3",
        "name": "aminoadipate-semialdehyde dehydrogenase-phosphopantetheinyl transferase",
        "pubmed_id": "12815048|11286508|18022563",
        "symbol": "AASDHPPT"
      },
      "id": 27,
      "links": {
        "self": "/genes/AASDHPPT"
      },
      "relationships": {
        "crispr_data": {
          "links": {
            "related": "/genes/AASDHPPT/datasets/crispr"
          }
        }
      },
      "type": "gene"
    },
    {
      "attributes": {
        "ensembl_gene_id": "ENSG00000008311",
        "entrez_id": 10157,
        "gene_family": null,
        "hgnc_id": "HGNC:17366",
        "location": "07q31.32",
        "name": "aminoadipate-semialdehyde synthase",
        "pubmed_id": "10775527",
        "symbol": "AASS"
      },
      "id": 28,
      "links": {
        "self": "/genes/AASS"
      },
      "relationships": {
        "crispr_data": {
          "links": {
            "related": "/genes/AASS/datasets/crispr"
          }
        }
      },
      "type": "gene"
    },
    {
      "attributes": {
        "ensembl_gene_id": "ENSG00000275700",
        "entrez_id": 26574,
        "gene_family": null,
        "hgnc_id": "HGNC:19235",
        "location": "17q12",
        "name": "apoptosis antagonizing transcription factor",
        "pubmed_id": "11027528|10783144",
        "symbol": "AATF"
      },
      "id": 29,
      "links": {
        "self": "/genes/AATF"
      },
      "relationships": {
        "crispr_data": {
          "links": {
            "related": "/genes/AATF/datasets/crispr"
          }
        }
      },
      "type": "gene"
    },
    {
      "attributes": {
        "ensembl_gene_id": "ENSG00000181409",
        "entrez_id": 9625,
        "gene_family": "Receptor Tyrosine Kinases|Protein phosphatase 1 regulatory subunits",
        "hgnc_id": "HGNC:21",
        "location": "17q25.3",
        "name": "apoptosis associated tyrosine kinase",
        "pubmed_id": "9734811|10083745|22573681",
        "symbol": "AATK"
      },
      "id": 30,
      "links": {
        "self": "/genes/AATK"
      },
      "relationships": {
        "crispr_data": {
          "links": {
            "related": "/genes/AATK/datasets/crispr"
          }
        }
      },
      "type": "gene"
    }
  ],
  "jsonapi": {
    "version": "1.0"
  },
  "links": {
    "first": "/genes",
    "last": "/genes?page%5Bnumber%5D=634",
    "next": "/genes?page%5Bnumber%5D=2",
    "self": "/genes"
  },
  "meta": {
    "count": 19018
  }
}